[gd_scene load_steps=4 format=2]

[ext_resource path="res://assets/fonts/menu_font.tres" type="DynamicFont" id=1]
[ext_resource path="res://scripts/default_non_game_screen.gd" type="Script" id=2]
[ext_resource path="res://scenes/old_scene/old_menu.tscn" type="PackedScene" id=3]

[node name="default_non_game_screen" type="Node"]
script = ExtResource( 2 )
return_scene = ExtResource( 3 )

[node name="background" type="ColorRect" parent="."]
margin_right = 800.0
margin_bottom = 600.0
__meta__ = {
"_edit_use_anchors_": false
}

[node name="return" type="Button" parent="."]
margin_left = 20.0
margin_top = 510.0
margin_right = 202.0
margin_bottom = 581.0
custom_fonts/font = ExtResource( 1 )
custom_colors/font_color = Color( 1, 0.815686, 0.494118, 1 )
text = "return"
flat = true
__meta__ = {
"_edit_use_anchors_": false
}
[connection signal="pressed" from="return" to="." method="_on_return_pressed"]
