[gd_scene load_steps=7 format=2]

[ext_resource path="res://scripts/splash_screen.gd" type="Script" id=1]
[ext_resource path="res://assets/fonts/Hoefler Text Regular.ttf" type="DynamicFontData" id=2]
[ext_resource path="res://assets/fonts/Crimson Pro ExtraLight Italic 275.ttf" type="DynamicFontData" id=3]

[sub_resource type="DynamicFont" id=1]
font_data = ExtResource( 3 )

[sub_resource type="DynamicFont" id=2]
font_data = ExtResource( 2 )

[sub_resource type="Animation" id=3]
resource_name = "color_change"
length = 10.0
tracks/0/type = "value"
tracks/0/path = NodePath("background:color")
tracks/0/interp = 2
tracks/0/loop_wrap = true
tracks/0/imported = false
tracks/0/enabled = true
tracks/0/keys = {
"times": PoolRealArray( 0, 5, 10 ),
"transitions": PoolRealArray( 1, 1, 1 ),
"update": 0,
"values": [ Color( 0.972549, 0.243137, 0.584314, 1 ), Color( 0.607843, 0.243137, 0.972549, 1 ), Color( 0.243137, 0.509804, 0.972549, 1 ) ]
}

[node name="splash_screen" type="Node"]
script = ExtResource( 1 )
next_scene = "res://scenes/menu.tscn"

[node name="background" type="ColorRect" parent="."]
margin_right = 800.0
margin_bottom = 600.0
color = Color( 0.972549, 0.243137, 0.584314, 1 )
__meta__ = {
"_edit_use_anchors_": false
}

[node name="introduction" type="RichTextLabel" parent="background"]
margin_left = 20.0
margin_top = 20.0
margin_right = 780.0
margin_bottom = 580.0
custom_fonts/italics_font = SubResource( 1 )
custom_fonts/normal_font = SubResource( 2 )
custom_colors/default_color = Color( 1, 0.815686, 0.494118, 1 )
bbcode_enabled = true
text = "Hello Everyone.

This is Helltaker fan game that's only made as the prototype for a different project.

@Vanripper has nothing to do with this game.

And this game wasn't made in professional manner."
scroll_active = false
__meta__ = {
"_edit_use_anchors_": false
}

[node name="ani_player" type="AnimationPlayer" parent="."]
anims/color_change = SubResource( 3 )
[connection signal="animation_finished" from="ani_player" to="." method="_on_ani_player_animation_finished"]
