[gd_scene load_steps=2 format=2]

[ext_resource path="res://scenes/default_non_game_screen.tscn" type="PackedScene" id=1]

[node name="about_screen" instance=ExtResource( 1 )]

[node name="background" parent="." index="0"]
color = Color( 0.972549, 0.243137, 0.584314, 1 )

[node name="about_text" type="RichTextLabel" parent="." index="1"]
margin_left = 20.0
margin_top = 20.0
margin_right = 780.0
margin_bottom = 510.0
__meta__ = {
"_edit_use_anchors_": false
}
