[gd_resource type="DynamicFont" load_steps=2 format=2]

[ext_resource path="res://assets/fonts/Hoefler Text Regular.ttf" type="DynamicFontData" id=1]

[resource]
size = 20
font_data = ExtResource( 1 )
