{
	"0":{
		"type":"dialogue",
		"name":"Azazel",
		"line":"What are you making?",
		"mood":"res://assets/characters/sprites/divided/modified_images/azazel_idle-redsweater.png",
		"movement":"intro",
		"position":"right",
		"next":"1"
	},
	"1":{
		"type":"dialogue",
		"name":"Lucifer",
		"line":"Making another breakfast while Helltaker is on his harem quest again.",
		"mood":"res://assets/characters/sprites/divided/modified_images/lucifer_pancake.png",
		"movement":"intro",
		"position":"left",
		"next":"2"
	},
	"2":{
		"type":"dialogue",
		"name":"Lucifer",
		"line":"And I made all of you the special Banana breakfast. A friend of mine who goes by the name Pirate taught me how to make banana panckaes.",
		"mood":"res://assets/characters/sprites/divided/modified_images/lucifer_talk.png",
		"movement":"stand",
		"position":"left",
		"next":"3"
	},
	"3":{
		"type":"dialogue",
		"name":"Azazel",
		"line":"Banana breakfasts are amazing.",
		"mood":"res://assets/characters/sprites/divided/modified_images/azazel_idle-redsweater.png",
		"movement":"happy",
		"position":"right",
		"next":"4"
	},
	"4":{
		"type":"dialogue",
		"name":"Lucifer",
		"line":"By the way, how's Super Saiyan Alanis Morissette doing.",
		"mood":"res://assets/characters/sprites/divided/modified_images/lucifer_talk.png",
		"movement":"stand",
		"position":"left",
		"next":"5"
	},
	"5":{
		"type":"dialogue",
		"name":"Azazel",
		"line":"Who - you mean our Lord? I haven't return to Heaven for months since Helltaker found me.",
		"mood":"res://assets/characters/sprites/divided/modified_images/azazel_idle-redsweater.png",
		"movement":"stand",
		"position":"right",
		"next":"6"
	},
	"6":{
		"type":"dialogue",
		"name":"Lucifer",
		"line":"I call Her \"Super Saiyan Alanis Morissette\".",
		"mood":"res://assets/characters/sprites/divided/modified_images/lucifer_yum.png",
		"movement":"happy",
		"position":"left",
		"next":"7"
	},
	"7":{
		"type":"dialogue",
		"name":"Azazel",
		"line":"I see. Seems like you don't like Alanis Morissette.",
		"mood":"res://assets/characters/sprites/divided/modified_images/azazel_idle-redsweater.png",
		"movement":"stand",
		"position":"right",
		"next":"8"
	},
	"8":{
		"type":"dialogue",
		"name":"Lucifer",
		"line":"You don't even know who Alanis Morissette is.",
		"mood":"res://assets/characters/sprites/divided/modified_images/lucifer_unsure.png",
		"movement":"stand",
		"position":"left",
		"next":"9"
	},
	"9":{
		"type":"dialogue",
		"name":"Azazel",
		"line":"And I haven't gotten know any demon in this house.",
		"mood":"res://assets/characters/sprites/divided/modified_images/azazel_idle-redsweater.png",
		"movement":"stand",
		"position":"right",
		"next":"10"
	},
	"10":{
		"type":"dialogue",
		"name":"Lucifer",
		"line":"I can arrange the interview for you. As far as I know, only four demons in this harem would like to talk with you.",
		"mood":"res://assets/characters/sprites/divided/modified_images/lucifer_talk.png",
		"movement":"stand",
		"position":"left",
		"next":"11"
	},
	"11":{
		"type":"dialogue",
		"name":"Azazel",
		"line":"Really? Thank you very much!",
		"mood":"res://assets/characters/sprites/divided/modified_images/azazel_idle-redsweater.png",
		"movement":"happy",
		"position":"right",
		"next":"12"
	},
	"12":{
		"type":"dialogue",
		"name":"Azazel",
		"line":"Better have my notebook ready.",
		"mood":"res://assets/characters/sprites/divided/modified_images/azazel_idle-redsweater.png",
		"movement":"stand",
		"position":"right",
		"next":"selections"
	},
	"selections":{
		"type":"choice",
		"0":{
			"text":"Justice",
			"value":"justice"
		},
		"1":{
			"text":"Pandemonica",
			"value":"pandemonica"
		},
		"2":{
			"text":"Malina",
			"value":"malina"
		},
		"3":{
			"text":"Zdrada",
			"value":"zdrada"
		}
	},
	"welcome":{
		"type":"dialogue",
		"name":"Lucifer",
		"line":"Welcome, back. Who do you want to talk to next?",
		"mood":"res://assets/characters/sprites/divided/modified_images/lucifer_idle.png",
		"movement":"stand",
		"position":"left",
		"next":"selections"
	}
}
